^C:\USERS\SAWAM\ONEDRIVE\デスクトップ\LINEAR_REGRESSION\MAIN.C
/c /ZI /JMC /nologo /W3 /WX- /diagnostics:column /sdl /Od /Oy- /D _MBCS /Gm- /EHsc /RTC1 /MDd /GS /fp:precise /permissive- /Zc:wchar_t /Zc:forScope /Zc:inline /Fo"DEBUG\\" /Fd"DEBUG\VC142.PDB" /Gd /TC /analyze- /FC C:\USERS\SAWAM\ONEDRIVE\デスクトップ\LINEAR_REGRESSION\MAIN.C
^C:\USERS\SAWAM\ONEDRIVE\デスクトップ\LINEAR_REGRESSION\MATRIX_OPERATION.C
/c /ZI /JMC /nologo /W3 /WX- /diagnostics:column /sdl /Od /Oy- /D _MBCS /Gm- /EHsc /RTC1 /MDd /GS /fp:precise /permissive- /Zc:wchar_t /Zc:forScope /Zc:inline /Fo"DEBUG\\" /Fd"DEBUG\VC142.PDB" /Gd /TC /analyze- /FC C:\USERS\SAWAM\ONEDRIVE\デスクトップ\LINEAR_REGRESSION\MATRIX_OPERATION.C
