^C:\USERS\SAWAM\ONEDRIVE\デスクトップ\LINEAR_REGRESSION\MAIN.C|C:\USERS\SAWAM\ONEDRIVE\デスクトップ\LINEAR_REGRESSION\MATRIX_OPERATION.C
C:\USERS\SAWAM\ONEDRIVE\デスクトップ\LINEAR_REGRESSION\LINEAR_REGRESSION_PROJ\LINEAR_REGRESSION_PROJ\DEBUG\VC142.PDB
C:\USERS\SAWAM\ONEDRIVE\デスクトップ\LINEAR_REGRESSION\LINEAR_REGRESSION_PROJ\LINEAR_REGRESSION_PROJ\DEBUG\VC142.IDB
C:\USERS\SAWAM\ONEDRIVE\デスクトップ\LINEAR_REGRESSION\LINEAR_REGRESSION_PROJ\LINEAR_REGRESSION_PROJ\DEBUG\MATRIX_OPERATION.OBJ
C:\USERS\SAWAM\ONEDRIVE\デスクトップ\LINEAR_REGRESSION\LINEAR_REGRESSION_PROJ\LINEAR_REGRESSION_PROJ\DEBUG\MAIN.OBJ
^C:\USERS\SAWAM\ONEDRIVE\デスクトップ\LINEAR_REGRESSION\MAIN.C
C:\USERS\SAWAM\ONEDRIVE\デスクトップ\LINEAR_REGRESSION\LINEAR_REGRESSION_PROJ\LINEAR_REGRESSION_PROJ\DEBUG\VC142.PDB
^C:\USERS\SAWAM\ONEDRIVE\デスクトップ\LINEAR_REGRESSION\MATRIX_OPERATION.C
C:\USERS\SAWAM\ONEDRIVE\デスクトップ\LINEAR_REGRESSION\LINEAR_REGRESSION_PROJ\LINEAR_REGRESSION_PROJ\DEBUG\VC142.PDB
